^D:\GAME_DEV\2.     JUNIOR UE_1\C++_PROGECT\PAYER\PAYER\DEBUG\PAYER.OBJ
D:\GAME_DEV\2.     JUNIOR UE_1\C++_PROGECT\PAYER\DEBUG\PAYER.EXE
D:\GAME_DEV\2.     JUNIOR UE_1\C++_PROGECT\PAYER\PAYER\DEBUG\PAYER.ILK
D:\GAME_DEV\2.     JUNIOR UE_1\C++_PROGECT\PAYER\DEBUG\PAYER.PDB
